,date,city,rent,product
0,2022-01-01,İzmir,13,1409
1,2022-01-02,Muğla,3,1086
2,2022-01-03,Kırşehir,8,1345
3,2022-01-04,Gaziantep,10,1145
4,2022-01-05,İçel (Mersin),10,1706
5,2022-01-06,Elazığ,2,1252
6,2022-01-07,Çorum,7,1408
7,2022-01-08,Antalya,2,1587
8,2022-01-09,Sakarya,17,1890
9,2022-01-10,Manisa,15,1716
10,2022-01-11,Denizli,13,1788
11,2022-01-12,Edirne,3,1271
12,2022-01-13,Denizli,16,1161
13,2022-01-14,Kocaeli,11,1519
14,2022-01-15,Gümüşhane,3,1539
15,2022-01-16,Giresun,15,1685
16,2022-01-17,Çorum,16,1060
17,2022-01-18,Siirt,6,1749
18,2022-01-19,Amasya,14,1426
19,2022-01-20,Denizli,8,1187
20,2022-01-21,Bartın,4,1679
21,2022-01-22,Bingöl,11,1172
22,2022-01-23,Aydın,1,1287
23,2022-01-24,Nevşehir,17,1713
24,2022-01-25,İçel (Mersin),13,1167
25,2022-01-26,Kahramanmaraş,8,1102
26,2022-01-27,İstanbul,13,1739
27,2022-01-28,Düzce,14,1908
28,2022-01-29,Tunceli,13,1407
29,2022-01-30,Diyarbakır,11,1252
30,2022-01-31,Kocaeli,15,1891
31,2022-02-01,Kastamonu,14,1967
32,2022-02-02,Uşak,7,1188
33,2022-02-03,Amasya,6,1174
34,2022-02-04,Yalova,17,1474
35,2022-02-05,Tunceli,1,1958
36,2022-02-06,Düzce,2,1684
37,2022-02-07,Kahramanmaraş,12,1275
38,2022-02-08,Niğde,1,1839
39,2022-02-09,Kastamonu,14,1003
40,2022-02-10,Kütahya,5,1750
41,2022-02-11,Osmaniye,15,1060
42,2022-02-12,Nevşehir,1,1259
43,2022-02-13,Çorum,4,1446
44,2022-02-14,Iğdır,6,1171
45,2022-02-15,Erzurum,8,1102
46,2022-02-16,Sinop,4,1264
47,2022-02-17,Bursa,11,1129
48,2022-02-18,Batman,13,1423
49,2022-02-19,Trabzon,10,1677
50,2022-02-20,Nevşehir,10,1389
51,2022-02-21,Muğla,11,1461
52,2022-02-22,Bayburt,7,1015
53,2022-02-23,Aydın,10,1098
54,2022-02-24,Şırnak,11,1973
55,2022-02-25,Aydın,16,1575
56,2022-02-26,Erzincan,11,1897
57,2022-02-27,Karabük,5,1660
58,2022-02-28,Erzurum,13,1700
59,2022-03-01,Antalya,12,1008
60,2022-03-02,Çankırı,10,1873
61,2022-03-03,İçel (Mersin),15,1325
62,2022-03-04,Kayseri,14,1563
63,2022-03-05,Bartın,4,1385
64,2022-03-06,Osmaniye,11,1863
65,2022-03-07,Antalya,9,1695
66,2022-03-08,Düzce,14,1432
67,2022-03-09,Rize,3,1247
68,2022-03-10,Gümüşhane,1,1249
69,2022-03-11,Şırnak,1,1925
70,2022-03-12,Tunceli,17,1652
71,2022-03-13,Bartın,14,1235
72,2022-03-14,Sakarya,15,1202
73,2022-03-15,İçel (Mersin),16,1174
74,2022-03-16,Giresun,17,1798
75,2022-03-17,Kayseri,14,1744
76,2022-03-18,Eskişehir,12,1286
77,2022-03-19,Burdur,12,1086
78,2022-03-20,Kocaeli,14,1231
79,2022-03-21,Kayseri,10,1795
80,2022-03-22,Muş,14,1040
81,2022-03-23,Bingöl,16,1964
82,2022-03-24,Tokat,10,1105
83,2022-03-25,Ankara,8,1822
84,2022-03-26,Kırklareli,5,1674
85,2022-03-27,Ardahan,11,1945
86,2022-03-28,Sakarya,14,1212
87,2022-03-29,Uşak,1,1773
88,2022-03-30,Kahramanmaraş,14,1806
89,2022-03-31,Aksaray,2,1240
90,2022-04-01,İzmir,11,1772
91,2022-04-02,Karaman,2,1552
92,2022-04-03,Nevşehir,17,1568
93,2022-04-04,Kırıkkale,3,1266
94,2022-04-05,Muğla,15,1368
95,2022-04-06,Hatay,17,1532
96,2022-04-07,Bitlis,17,1675
97,2022-04-08,Nevşehir,8,1666
98,2022-04-09,Hatay,16,1686
99,2022-04-10,Batman,11,1203
100,2022-04-11,Manisa,17,1095
101,2022-04-12,İstanbul,12,1838
102,2022-04-13,Kayseri,14,1967
103,2022-04-14,Muğla,2,1472
104,2022-04-15,Bursa,3,1627
105,2022-04-16,Isparta,4,1040
106,2022-04-17,Zonguldak,16,1365
107,2022-04-18,Elazığ,14,1747
108,2022-04-19,Bayburt,14,1506
109,2022-04-20,Niğde,7,1801
110,2022-04-21,Ardahan,8,1600
111,2022-04-22,Nevşehir,4,1271
112,2022-04-23,Elazığ,9,1235
113,2022-04-24,Kastamonu,15,1274
114,2022-04-25,İzmir,1,1779
115,2022-04-26,Bolu,2,1654
116,2022-04-27,Aydın,9,1876
117,2022-04-28,Samsun,3,1449
118,2022-04-29,Kırşehir,10,1762
119,2022-04-30,Kocaeli,13,1301
120,2022-05-01,Kırıkkale,9,1153
121,2022-05-02,Adana,8,1795
122,2022-05-03,Siirt,8,1075
123,2022-05-04,Osmaniye,5,1000
124,2022-05-05,Manisa,4,1788
125,2022-05-06,Antalya,6,1096
126,2022-05-07,Bolu,5,1945
127,2022-05-08,İzmir,6,1839
128,2022-05-09,Kırıkkale,2,1557
129,2022-05-10,Ağrı,3,1424
130,2022-05-11,Erzincan,9,1536
131,2022-05-12,Bolu,14,1770
132,2022-05-13,Trabzon,7,1535
133,2022-05-14,Manisa,7,1161
134,2022-05-15,Burdur,7,1989
135,2022-05-16,Zonguldak,9,1563
136,2022-05-17,Iğdır,17,1096
137,2022-05-18,Kastamonu,3,1842
138,2022-05-19,Karabük,16,1814
139,2022-05-20,Antalya,3,1672
140,2022-05-21,Bingöl,7,1886
141,2022-05-22,Bartın,12,1183
142,2022-05-23,Osmaniye,11,1833
143,2022-05-24,Hakkari,6,1570
144,2022-05-25,İzmir,12,1310
145,2022-05-26,Aksaray,9,1224
146,2022-05-27,Ankara,9,1054
147,2022-05-28,Zonguldak,6,1812
148,2022-05-29,İstanbul,15,1967
149,2022-05-30,Bartın,13,1128
150,2022-05-31,Bartın,1,1414
151,2022-06-01,Siirt,5,1863
152,2022-06-02,Osmaniye,13,1645
153,2022-06-03,Bingöl,5,1102
154,2022-06-04,Yozgat,6,1984
155,2022-06-05,Bitlis,6,1159
156,2022-06-06,Kırklareli,7,1259
157,2022-06-07,Kayseri,3,1569
158,2022-06-08,Tunceli,10,1695
159,2022-06-09,Kilis,1,1419
160,2022-06-10,Şırnak,11,1185
161,2022-06-11,Kastamonu,8,1904
162,2022-06-12,Hakkari,16,1498
163,2022-06-13,Samsun,4,1746
164,2022-06-14,Bolu,7,1722
165,2022-06-15,Aydın,8,1475
166,2022-06-16,Kırklareli,11,1680
167,2022-06-17,Erzurum,1,1503
168,2022-06-18,Van,5,1908
169,2022-06-19,Muş,2,1579
170,2022-06-20,Bingöl,16,1963
171,2022-06-21,Ankara,1,1592
172,2022-06-22,Iğdır,6,1785
173,2022-06-23,Ordu,17,1003
174,2022-06-24,Bilecik,6,1792
175,2022-06-25,Kastamonu,11,1808
176,2022-06-26,Kırklareli,9,1446
177,2022-06-27,Artvin,8,1338
178,2022-06-28,Konya,14,1174
179,2022-06-29,Gümüşhane,12,1170
180,2022-06-30,Uşak,17,1626
181,2022-07-01,İzmir,15,1299
182,2022-07-02,Düzce,8,1509
183,2022-07-03,Adana,17,1924
184,2022-07-04,Düzce,6,1040
185,2022-07-05,Uşak,12,1827
186,2022-07-06,Şanlıurfa,2,1661
187,2022-07-07,Kastamonu,1,1166
188,2022-07-08,Ağrı,17,1259
189,2022-07-09,Zonguldak,11,1660
190,2022-07-10,Tunceli,8,1947
191,2022-07-11,Çankırı,15,1350
192,2022-07-12,Kilis,9,1791
193,2022-07-13,Karabük,14,1840
194,2022-07-14,Yozgat,3,1734
195,2022-07-15,Afyon,16,1146
196,2022-07-16,Karaman,6,1669
197,2022-07-17,Niğde,17,1212
198,2022-07-18,Bitlis,6,1249
199,2022-07-19,Mardin,11,1456
200,2022-07-20,Kütahya,16,1386
201,2022-07-21,Sinop,16,1569
202,2022-07-22,Diyarbakır,17,1525
203,2022-07-23,Bilecik,17,1191
204,2022-07-24,Tekirdağ,3,1127
205,2022-07-25,Çanakkale,13,1022
206,2022-07-26,Sakarya,10,1032
207,2022-07-27,Sivas,17,1160
208,2022-07-28,Osmaniye,2,1279
209,2022-07-29,İzmir,13,1435
210,2022-07-30,Afyon,13,1259
211,2022-07-31,Giresun,5,1005
212,2022-08-01,Diyarbakır,17,1659
213,2022-08-02,Adıyaman,15,1882
214,2022-08-03,Kocaeli,2,1408
215,2022-08-04,Samsun,8,1679
216,2022-08-05,Kocaeli,2,1558
217,2022-08-06,Hakkari,13,1838
218,2022-08-07,Kırşehir,12,1038
219,2022-08-08,Mardin,17,1265
220,2022-08-09,Tokat,16,1415
221,2022-08-10,İzmir,8,1925
222,2022-08-11,Afyon,7,1334
223,2022-08-12,Elazığ,14,1798
224,2022-08-13,Uşak,5,1644
225,2022-08-14,Bartın,16,1595
226,2022-08-15,Batman,8,1072
227,2022-08-16,Sivas,13,1945
228,2022-08-17,Karaman,2,1610
229,2022-08-18,Uşak,1,1263
230,2022-08-19,Zonguldak,15,1553
231,2022-08-20,Ağrı,4,1914
232,2022-08-21,Batman,9,1386
233,2022-08-22,Muş,16,1728
234,2022-08-23,Karabük,7,1651
235,2022-08-24,Siirt,9,1853
236,2022-08-25,Mardin,10,1088
237,2022-08-26,Iğdır,2,1416
238,2022-08-27,Bingöl,1,1213
239,2022-08-28,İstanbul,3,1119
240,2022-08-29,Şanlıurfa,13,1368
241,2022-08-30,Şırnak,9,1779
242,2022-08-31,Tunceli,6,1363
243,2022-09-01,Muş,17,1187
244,2022-09-02,Giresun,6,1069
245,2022-09-03,Kars,2,1170
246,2022-09-04,Afyon,7,1317
247,2022-09-05,Aydın,13,1403
248,2022-09-06,Sinop,10,1180
249,2022-09-07,Tekirdağ,4,1616
250,2022-09-08,Muş,3,1022
251,2022-09-09,Aydın,14,1936
252,2022-09-10,Artvin,7,1058
253,2022-09-11,Batman,17,1087
254,2022-09-12,Bitlis,8,1826
255,2022-09-13,Sivas,9,1537
256,2022-09-14,Çankırı,1,1308
257,2022-09-15,Antalya,8,1190
258,2022-09-16,Hatay,6,1087
259,2022-09-17,Kütahya,15,1828
260,2022-09-18,Isparta,14,1581
261,2022-09-19,Kütahya,15,1074
262,2022-09-20,Sakarya,4,1436
263,2022-09-21,Sakarya,2,1770
264,2022-09-22,Balıkesir,2,1771
265,2022-09-23,Erzincan,14,1041
266,2022-09-24,Zonguldak,15,1508
267,2022-09-25,Kırıkkale,14,1129
268,2022-09-26,Burdur,16,1298
269,2022-09-27,Konya,8,1358
270,2022-09-28,Elazığ,11,1285
271,2022-09-29,Zonguldak,4,1868
272,2022-09-30,Osmaniye,14,1248
273,2022-10-01,Malatya,2,1500
274,2022-10-02,Denizli,11,1898
275,2022-10-03,Balıkesir,15,1912
276,2022-10-04,Uşak,14,1778
277,2022-10-05,Çorum,2,1019
278,2022-10-06,Trabzon,11,1194
279,2022-10-07,Trabzon,15,1006
280,2022-10-08,Rize,6,1306
281,2022-10-09,Aydın,17,1810
282,2022-10-10,Bartın,10,1627
283,2022-10-11,İzmir,15,1431
284,2022-10-12,Afyon,15,1954
285,2022-10-13,Adıyaman,5,1375
286,2022-10-14,Ardahan,3,1145
287,2022-10-15,Kayseri,5,1885
288,2022-10-16,Isparta,6,1638
289,2022-10-17,Uşak,16,1947
290,2022-10-18,Hakkari,9,1666
291,2022-10-19,Diyarbakır,10,1926
292,2022-10-20,Kilis,7,1841
293,2022-10-21,Burdur,6,1281
294,2022-10-22,İzmir,5,1551
295,2022-10-23,Hakkari,2,1947
296,2022-10-24,Gaziantep,4,1555
297,2022-10-25,Kırşehir,9,1691
298,2022-10-26,Iğdır,16,1030
299,2022-10-27,Düzce,8,1500
300,2022-10-28,Bingöl,3,1834
301,2022-10-29,Siirt,9,1856
302,2022-10-30,Bartın,8,1460
303,2022-10-31,Muğla,15,1098
304,2022-11-01,Ordu,8,1966
305,2022-11-02,Kırıkkale,7,1912
306,2022-11-03,Malatya,8,1112
307,2022-11-04,Karaman,12,1447
308,2022-11-05,Şırnak,16,1335
309,2022-11-06,Bolu,9,1391
310,2022-11-07,Gaziantep,12,1742
311,2022-11-08,Aksaray,9,1828
312,2022-11-09,Düzce,5,1574
313,2022-11-10,Sakarya,8,1957
314,2022-11-11,Ardahan,16,1741
315,2022-11-12,Sakarya,15,1191
316,2022-11-13,Ardahan,7,1080
317,2022-11-14,Şanlıurfa,4,1448
318,2022-11-15,Kütahya,5,1378
319,2022-11-16,Düzce,16,1619
320,2022-11-17,Amasya,11,1418
321,2022-11-18,Karaman,1,1889
322,2022-11-19,Giresun,12,1648
323,2022-11-20,Kilis,12,1051
324,2022-11-21,Niğde,11,1242
325,2022-11-22,Aydın,3,1710
326,2022-11-23,Gaziantep,2,1867
327,2022-11-24,Kırıkkale,13,1759
328,2022-11-25,Artvin,11,1702
329,2022-11-26,Kastamonu,1,1763
330,2022-11-27,Konya,4,1640
331,2022-11-28,Sinop,16,1114
332,2022-11-29,Ağrı,8,1495
333,2022-11-30,Kırklareli,15,1900
334,2022-12-01,Yalova,6,1710
335,2022-12-02,Uşak,4,1094
336,2022-12-03,Bitlis,7,1587
337,2022-12-04,Konya,4,1742
338,2022-12-05,Tekirdağ,13,1039
339,2022-12-06,Kayseri,10,1212
340,2022-12-07,Kütahya,3,1915
341,2022-12-08,Giresun,16,1268
342,2022-12-09,İzmir,8,1860
343,2022-12-10,Malatya,15,1264
344,2022-12-11,Nevşehir,2,1883
345,2022-12-12,Kırşehir,16,1138
346,2022-12-13,Ankara,5,1923
347,2022-12-14,Çorum,10,1358
348,2022-12-15,Kayseri,17,1887
349,2022-12-16,Elazığ,4,1596
350,2022-12-17,Kastamonu,9,1614
351,2022-12-18,Bilecik,4,1532
352,2022-12-19,Bartın,9,1232
353,2022-12-20,Adana,14,1422
354,2022-12-21,Artvin,16,1158
355,2022-12-22,Antalya,7,1493
356,2022-12-23,Çanakkale,13,1189
357,2022-12-24,Bilecik,9,1241
358,2022-12-25,Kahramanmaraş,11,1715
359,2022-12-26,Mardin,16,1459
360,2022-12-27,Kilis,4,1299
361,2022-12-28,Gümüşhane,1,1611
362,2022-12-29,Kayseri,15,1791
363,2022-12-30,Bartın,8,1046
